﻿[
	{
		"_id":"c-100",
		"_parentId":"b-100",
		"_type":"component",
		"_component":"graphic",
		"_classes":"",
		"_layout":"left",
		"title":"Rights Manager’a Giriş",
		"displayTitle":"",
		"body":"",
		"instruction":"",
		"_graphic": {
			"src": "course/en/images/icon-match.png",
			"alt": "Video oynatıcı pencereleri grafiği"
		},
		"_isComplete": false,
		"_pageLevelProgress": {
			"_isEnabled": true
		}
	},
	{
		"_id":"c-105",
		"_parentId":"b-100",
		"_type":"component",
		"_component":"text",
		"_classes":"",
		"_layout":"right",
		"title":"",
		"displayTitle":"",
		"body":"Rights Manager, yayıncıların Facebook’ta kendilerine ait ses ve/veya görüntü içeriklerini barındıran videoları bulmasına yardımcı olabilir.<br><br>Hak sahipleri öncelikle Rights Manager’da <strong>referans dosyalar</strong> ekleyerek söz konusu içeriğin kendilerine ait olduğunu kanıtlar. Ardından, referans dosyalarla eşleşen videolar tespit edildiğinde ne yapılacağını belirleyen <strong>eşleşme kuralları</strong> oluştururlar.<br><br>Sayfa yöneticileri Rights Manager’a Facebook içinde Yayınlama Araçları altından erişebilir ve geliştiriciler Facebook’un diğer internet ve veri uygulamaları ile entegrasyon sağlayan Rights Manager API’sini kullanabilirler.",
		"instruction":"",
		"_isComplete": true,
		"_pageLevelProgress": {
			"_isEnabled": true
		}
	},
		{
		"_id":"c-110",
		"_parentId":"b-110",
		"_type":"component",
		"_component":"text",
		"_classes":"",
		"_layout":"full",
		"title":"Öğrenme Amaçları",
		"displayTitle":"",
		"body":"Bu kursta aşağıdakilerin nasıl yapıldığını öğreneceğiniz:<br><br><ul><li>Hakları size ait içerikleri barındıran videoları Facebook’ta bulmaya başlamak için <strong>referans dosyalar ekleyin</strong>. Canlı videolar dahil olmak üzere videolar ve bu videolarla ilişkili ses içeriklerini Facebook’ta potansiyel kötüye kullanım ve reklam geliri açısından takip etmek için bir kütüphane oluşturun.</li><br><li>Referans dosyalarınızdan biriyle potansiyel olarak eşleşen videolarla ilgili nasıl önlemler alınacağını belirten <strong>eşleşme kuralları oluşturun</strong>.</li><br><li>Sadece belirli kişi veya Sayfaların referans dosyalarınızla eşleşen ses dosyaları veya içerikler yüklemesine olanak tanımak üzere <strong>izinler verin</strong>.</li><br><li>Size ait olanlarla eşleşen videolar veya referans dosyalar yükleyen <strong>kişi veya Sayfalara olay bazında yanıt verin</strong>.</li></ul>",
		"instruction":"",
		"_isComplete": true,
		"_pageLevelProgress": {
			"_isEnabled": true
		}
	},
	{
		"_id":"c-199",
		"_parentId":"b-199",
		"_type":"component",
		"_component":"co-jump",
		"_classes":"color-test",
		"_preLinkBody":"Rights Manager, Facebook’ta fikri mülkiyetin geniş ölçekte yönetilmesi için esnek araçlar sunar. Facebook ",
		"_linkBody":"ilkeleri ve temelleri",
		"_postLinkBody":" konusundaki bilgilerinizi pekiştirerek bu platformu kimlerin kullanması gerektiğini, hangi tür içerikleri izleyebileceğinizi, kötüye kullanıma karşı koruyabileceğinizi ve hangi tür içeriklerden potansiyel reklam geliri talep edebileceğinizi keşfedin.",
		"_link":"#/id/co-200",
		"_graphic":"adapt/css/assets/icon_nextPage.png",
		"_pageLevelProgress": {
			"_isEnabled": false
		}
	},
	
	
	
	
	{
		"_id":"c-200",
		"_parentId":"b-200",
		"_type":"component",
		"_component":"graphic",
		"_classes":"",
		"_layout":"full",
		"title":"",
		"displayTitle":"",
		"body":"Rights Manager, hak sahiplerinin Facebook’ta dijital video ve ses içeriklerini potansiyel kötüye kullanıma karşı geniş ölçekte korumasına yardımcı olacak esnek yöntemler sunar ve Facebook’ta mülkiyeti kendilerine ait olan içeriklerin kullanımıyla ilgili anlaşmazlıkların çözülmesine yardımcı olmak üzere tasarlanmış bir sürece sahiptir. ",
		"instruction":"",
		"_graphic": {
			"src": "course/en/images/RM_policies.png",
			"alt": "Genel Bakış"
		},
		"_isComplete": false,
		"_pageLevelProgress": {
			"_isEnabled": false
		}
	},
	{
		"_id":"c-210",
		"_parentId":"b-210",
		"_type":"component",
		"_component":"text",
		"_classes":"",
		"_layout":"full",
		"title":"Facebook’ta hangi tür içerikler korunabilir?",
		"displayTitle":"Facebook’ta hangi tür içerikler korunabilir?",
		"body":"Facebook, kişi ve kurumlara Facebook’ta yer alan fikri mülkiyeti kendilerine ait içeriklerle ilişkili reklam gelirini, içeriği kendileri paylaşmıyor olsalar dahi izleme, koruma ve talep etme konusunda yardımcı olmaya büyük önem vermektedir.<br><br>Özgün bir eserin hakları size aitse ve eserin nasıl kullanıldığını kontrol etmek istiyorsanız, Facebook size bu konuda yardımcı olabilir. Çoğu ülkede kitap, film, müzik ve sanat gibi <strong>özgün yaratıcı eserlerin çoğaltılması ve dağıtılmasına yönelik münhasır hak, telif hakkı olarak adlandırılır</strong>. <br><br><a href='https://www.facebook.com/help/399224883474207' target='_blank'>Facebook’ta telif ve ticari marka hakkı</a> konusunda daha fazla bilgiyi Yardım Merkezi’nde bulabilirsiniz.<br><br>Bazı ülkelerde, telif hakkı ile korunan içerikler belirli durumlarda <strong>adil kullanım</strong> ve <strong>adil iş yapma</strong> prensipleri çerçevesinde olmak üzere kullanılabilir. Telif ve ticari marka hakkı <a href='https://www.facebook.com/help/337995452911154' target='_new'>kapsamına girmeyen içerikler</a> hakkında bilgi alın.",
		"instruction":"",
		"_isComplete": true,
		"_pageLevelProgress": {
			"_isEnabled": true
		}
	},
	{
		"_id":"c-220",
		"_parentId":"b-220",
		"_type":"component",
		"_component":"text",
		"_classes":"",
		"_layout":"full",
		"title":"Rights Manager’ı kimler kullanabilir?",
		"displayTitle":"Rights Manager’ı kimler kullanabilir?",
		"body":"Rights Manager, hak sahiplerinin erişim hakkı tanındıktan sonra Facebook’taki eserlerini geniş ölçekte korumasına yardımcı olmak üzere tasarlanmıştır.<br><br>Rights Manager’a erişim başvurusunda bulunmak için yöneticiler bir Facebook Sayfası adına <a href='https://rightsmanager.fb.com/' target='_blank'>başvuru yapabilirler</a>. Başvuru sahibinden bir iletişim e-postasının yanı sıra bazı ilave bilgiler vermesi istenecektir. Ortaklar, ihtiyaçlarına göre Rights Manager’a kabul edilir. Başvurunuzun kabul edilmesi halinde, Facebook size e-posta yoluyla haber verecek ve aracı kullanmaya başlamanıza yardımcı olacak bilgileri ulaştıracaktır.<br><br>Gerekli koşulları taşıyan bir Sayfaya Rights Manager’a erişim izni verildiğinde, Sayfada yönetici veya editör görevi bulunan birinin Koşulları kabul etmesi gerekir. Bu işlemin ardından, Sayfada yönetici veya editör görevi bulunan herkes Yayınlama Araçları aracılığıyla Rights Manager’a erişebilir.",
		"instruction":"",
		"_isComplete": true,
		"_pageLevelProgress": {
			"_isEnabled": true
		}
	},
	{
		"_id":"c-230",
		"_parentId":"b-230",
		"_type":"component",
		"_component":"text",
		"_classes":"",
		"_layout":"full",
		"title":"Kurulum ve Ayarlar",
		"displayTitle":"Kurulum ve Ayarlar",
		"body":"İçeriklerinizi izlemek, potansiyel kötüye kullanıma karşı korumak ve içeriklerinizden reklam geliri talep etmek amacıyla Rights Manager’ı kullanmaya başlamadan önce, Sayfa Ayarlarınıza bazı ek bilgiler girmeniz gerekecektir:",
		"instruction":"",
		"_isComplete": false,
		"_pageLevelProgress": {
			"_isEnabled": true
		}
	},
	{
		"_id":"c-232",
		"_parentId":"b-230",
		"_type":"component",
		"_component":"graphic",
		"_classes":"",
		"_layout":"left",
		"title":"",
		"displayTitle":"",
		"body":"",
		"instruction":"",
		"_graphic": {
			"src": "course/en/images/settings.png",
			"alt": "Arayüz görseli"
		},
		"_isComplete": false,
		"_pageLevelProgress": {
			"_isEnabled": false
		}
	},
	{
		"_id":"c-235",
		"_parentId":"b-230",
		"_type":"component",
		"_component":"text",
		"_classes":"",
		"_layout":"right",
		"title":"",
		"displayTitle":"",
		"body":"<h2>İletişim bilgileri</h2>Facebook’tan haklarınızı ihlal eden içeriklerin kaldırılması talebinde bulunduğunuzda, iletişim bilgileriniz ve talebinize ilişkin ayrıntılar içeriği paylaşan kişiyle paylaşılabilir. Bu bilgileri, her kaldırma talebi gönderimi öncesinde değiştirebilirsiniz.<br><br><h2>Reklam geliri üzerinde hak iddiasında bulunma</h2>Bazı pazarlarda, kişiler ve Sayfalar Facebook’ta izlenen videolarına karşılık para talebinde bulunabilir. Hakları size ait olan ses veya video içeriğini barındıran videolar başka kişiler tarafından Facebook’a yüklendiyse, bu videodan doğan tüm reklam gelirinden pay talep edebilirsiniz. Facebook’ta paylaşılan ve hakları size ait olan videolardan reklam geliri talep etmek için Vergi Numarası ve banka hesap bilgileri dahil olmak üzere ödeme bilgilerinizi sağlayın.<br><br>Siz veya şirketiniz tarafından yönetilen birden fazla Sayfa varsa, finans yöneticiniz bu Sayfaların hepsinde aynı ödeme bilgilerini kullanmalıdır.<br><br><h2>Sahiplik ayarları</h2>Hak sahipleri, sahiplik ayarlarının ve eşleşme kurallarının video yüklemeleri sırasında otomatik olarak doldurulması tercihinde bulunabilir.",
		"instruction":"",
		"_isComplete": true,
		"_pageLevelProgress": {
			"_isEnabled": false
		}
	},
	{
		"_id":"c-299",
		"_parentId":"b-299",
		"_type":"component",
		"_component":"co-jump",
		"_classes":"color-test",
		"_preLinkBody":"Rights Manager’a erişim hakkı için başvurdunuz ve kabul edildiniz! Şimdi ne olacak? ",
		"_linkBody":"Kullanmaya başlama",
		"_postLinkBody":" bölümünde keşfedin.",
		"_link":"#/id/co-300",
		"_graphic":"adapt/css/assets/icon_nextPage.png",
		"_pageLevelProgress": {
			"_isEnabled": false
		}
	},
	
	
	
	
	
	{
		"_id":"c-300",
		"_parentId":"b-300",
		"_type":"component",
		"_component":"text",
		"_classes":"",
		"_layout":"full",
		"title":"Rights Manager arayüzünü bir Sayfadan bulma",
		"displayTitle":"",
		"body":"Rights Manager bir Sayfada etkinleştirildikten sonra, yöneticiler Facebook’taki video ve ses içerikleri üzerindeki haklarını resmileştirmek için referans dosyalar yükleyebilir.<br><br>Bir <strong>referans dosya</strong>, Rights Manager’a söz konusu içerik üzerindeki haklarınızı resmileştirmek amacıyla yüklediğiniz bir videodur. Rights Manager, Facebook’ta fikri mülkiyeti tespit etmenize ve yönetmenize yardımcı olmak amacıyla Facebook’ta paylaşılan tüm videoları eşleşen içerik açısından taramak üzere dosyalar.<br><br>Rights Manager, sadece hak sahibinin içerik üzerinde sahiplik iddiasında bulunabilmesini sağlamak için yeni yüklenen referans dosyaları daha önce yüklenmiş tüm referans dosyalar ile karşılaştırır.<br><br><div style='background-color:#eceff5; padding:2.5em;'><strong>Uygulama programı arayüzleri (API’ler)</strong>, geliştiricilerin Facebook arayüzünü tamamen atlamasına veya özel arayüzler oluşturmasına olanak tanır. Ayrıntılar için <a href='https://developers.facebook.com/docs/graph-api/reference/video-copyright' target='_blank'>geliştirici belgelerine</a> göz atın.<br><br>Referans dosyaların Rights Manager API’si üzerinden aktarılması, yayıncılara videoların bazı <em>kısımlarını mülkiyet hakkı iddialarından muaf tutma</em> olanağı tanır. Bu, örneğin bir başkasının yaratıcı eserini videonuzda kullanmak üzere münhasır olmayan bir izin aldığınız ve referans dosya içeriğinin %100’üne sahip olmadığınız durumlarda oldukça önemlidir.</div>",
		"instruction":"",
		"_isComplete": true,
		"_pageLevelProgress": {
				"_isEnabled": true
		}
	},
	{
		"_id":"c-310",
		"_parentId":"b-310",
		"_type":"component",
		"_component":"accordion",
		"_classes":"",
		"_layout":"full",
		"title":"Referans dosyalar ekleme",
		"displayTitle":"Referans dosyalar ekleme",
		"body":"Hem canlı, hem de normal (isteğe bağlı) videolar için referans dosyalar oluşturabilirsiniz.<br><br><div style='background-color:#eceff5; padding:2.5em;'><img src='course/en/images/tip.png' style='height:7.5em;float:left;position:relative;left:-2em;top:-2em;padding:0;'>İçerik sahipleri, referans dosyaları ayrı ayrı veya toplu olarak programlanabilir biçimde yüklemek için <strong><a href='https://developers.facebook.com/docs/graph-api/rights-manager-api' target='_blank'>Rights Manager API<a/></strong>’den faydalanabilir. </div><br><br><em>Not: Videoları korumak için Facebook’ta yayınlamanıza gerek yoktur. Hak sahipleri referans dosyaları başkalarına görünür yapmadan doğrudan Rights Manager’a yükleyebilir.</em><br><h2 style='margin-top:2.5em;'>Normal videolar</h2><br>Normal videolar için birkaç farklı yolla referans dosyalar oluşturabilirsiniz:<br><br>",
		"instruction":"",
		"_items": [
			{
				"title": "Yayınlama Araçları aracılığıyla doğrudan dosya ekleme",
				"body": "Yayınlama Araçları içinde <strong>Rights Manager</strong>’dan <span style='padding:.2em .4em;color:#fff;background-color:#3b5998;'><strong>+ Dosya Ekle</strong></span> düğmesini seçin.<br><br><img src='course/en/images/ref_add.png'>"
			},
			{
				"title": "Videoları Facebook’a yüklediğiniz anda referans dosya olarak belirleme",
				"body": "<strong>Gelişmiş</strong> sekmesinde “Eşleşen içerikleri sapta” onay kutusunu işaretleyin.<br><br><img src='course/en/images/detect.png'>"
			},
			{
				"title": "Videoları Facebook’ta paylaştıktan sonra referans dosya olarak belirleme",
				"body": "<strong>Video Kütüphanesi</strong>’nde “Videoyu Düzenle” iletişim kutusundan."
			}
		],
		
		"_isComplete": false,
		"_pageLevelProgress": {
				"_isEnabled": true
		}
	},
	{
		"_id":"c-312",
		"_parentId":"b-312",
		"_type":"component",
		"_component":"accordion",
		"_classes":"",
		"_layout":"full",
		"title":"",
		"displayTitle":"",
		"body":"Rights Manager Ayarlarında özel bir sahiplik ayarı belirlediyseniz, Video Kütüphanesine bir video yüklerken veya burada bir videoyu düzenlerken “Gelişmiş” sekmesinde “Eşleşen içerikleri sapta” seçimi yapılmış videolar için video sahipliği ve eşleştirme işleminin otomatik olarak işaretleneceğini unutmayın.<h2 style='margin-top:2.5em;'>Canlı videolar</h2><br>Aşağıdaki işlemleri gerçekleştirirken bir canlı referans dosya oluşturabilirsiniz:",
		"instruction":"",
		"_items": [
			{
				"title": "Yayınlama Araçları aracılığıyla Canlı yayına geçme",
				"body": "Video Kütüphanenizden <span style='padding:.2em .4em;background-color:#eee;'><strong>+ Canlı</strong></span> düğmesini ve ardından <strong>Hak Yönetimi</strong> alanından “Eşleşen içerikleri sapta” öğesini seçin.<br><br><img src='course/en/images/detect_live.png'>"
			},
			{
				"title": "Rights Manager aracılığıyla bir canlı yayın referansı ekleme",
				"body": "Referans Dosyalar kütüphanenizden <span style='padding:.2em .4em;background-color:#eee;'><strong>+ Canlı Video Ekle</strong></span> düğmesini seçin.<br><br><img src='course/en/images/ref_live_add.png'>"
			}
		],
		"_isComplete": true,
		"_pageLevelProgress": {
			"_isEnabled": false
		}
	},
	{
		"_id":"c-320",
		"_parentId":"b-320",
		"_type":"component",
		"_component":"graphic",
		"_classes":"",
		"_layout":"full",
		"title":"Referans dosyaları yönetme",
		"displayTitle":"Referans dosyaları yönetme",
		"body":"Bir video dosyası veya canlı video için bir referans dosya eklediğinizde, sizden sahiplik durumunu belirtmeniz, eşleşme kurallarını uygulamanız ve bu içerikle eşleşen videoları paylaşmasına izin verdiğiniz kişi ya da Sayfaları beyaz listeye almanız istenecektir.",
		"instruction":"",
		"_graphic": {
			"src": "course/en/images/upload.png",
			"alt": "Arayüz görseli"
		},
		"_isComplete": false,
		"_pageLevelProgress": {
			"_isEnabled": true
		}
	},
	{
		"_id":"c-330",
		"_parentId":"b-330",
		"_type":"component",
		"_component":"survey-radio",
		"_classes":"",
		"_layout":"left",
		"title":"Terimler",
		"displayTitle":"",
		"body":"",
		"instruction":"Menüden bir işlem seçerek listenin altında açıklamasını görüntüleyin.",
		"userSelection": [],
		"_items": [
			{
				"label": "Sahipliği belirtme",
				"value": "1"
			},
			{
				"label": "Eşleşme kuralını uygulama",
				"value": "2"
			},
			{
				"label": "İzinler verme",
				"value": "3"
			}
		],
		"_isComplete": false,
		"_pageLevelProgress": {
			"_isEnabled": false
		}
	},
	{
		"_id":"c-335",
		"_parentId":"b-330",
		"_type":"component",
		"_component":"survey-feedback",
		"_classes":"",
		"_layout":"right",
		"title":"Tanımlar",
		"displayTitle":"",
		"body":"",
		"instruction":"",
		"feedbackBody": "",
		"feedbackPostBody": "",
		"prefix": "",
		"suffix": "",
		"limitFeedback": true,
		"feedback": [
			{
				"resultsFor": ["c-330"],
				"condition": "is",
				"value": "1",
				"response": "Sahiplik, bir video ve/veya bu video ile ilişkili ses içeriklerinin hangi kısımlarının haklarının dünyanın hangi kısımlarında size ait olduğunu belirtmek amacıyla kullanılır."
			},
			{
				"resultsFor": ["c-330"],
				"condition": "is",
				"value": "2",
				"response": "Bu referans dosyada yer alan herhangi bir içeriğin Facebook’a yüklenmesi durumunda hangi eşleşme kuralının geçerli olacağını belirleyin."
			},
			{
				"resultsFor": ["c-330"],
				"condition": "is",
				"value": "3",
				"response": "Bu referans dosyada yer alan içerikleri her zaman paylaşabilecek olan kişi ve Sayfaları beyaz listeye alın."
			}
		],
		"_isComplete": true,
		"_pageLevelProgress": {
			"_isEnabled": false
		}
	},
	{
		"_id":"c-340",
		"_parentId":"b-340",
		"_type":"component",
		"_component":"text",
		"_classes":"",
		"_layout":"full",
		"title":"Eşleşme kuralları belirleme",
		"displayTitle":"",
		"body":"İçeriklerinizin potansiyel kötüye kullanıma karşı doğru biçimde izlenmesini sağlamak için referans dosyalarınızı düzenli olarak güncelleyin. Referans dosyanızı sizden önce başka bir Facebook Sayfasının referans dosya olarak yüklemiş olması durumunda, bunun Referans Dosyalar kütüphanenize bir ihtilaf olarak yansıdığını görebilirsiniz. Bu kursun bir sonraki bölümü, bu tarz referans dosya ihtilaflarının nasıl çözüme kavuşturulabileceğine dair bilgiler içeriyor.<br><br>Öncelikle referans dosyaların yönetimiyle ilgili bu üç yönteme daha yakından bakalım.",
		"instruction":"",
		"_isComplete": true,
		"_pageLevelProgress": {
			"_isEnabled": true
	 }
	},
	{
		"_id":"c-350",
		"_parentId":"b-350",
		"_type":"component",
		"_component":"text",
		"_classes":"",
		"_layout":"full",
		"title":"Sahipliği belirtme",
		"displayTitle":"Sahipliği belirtme",
		"body":"<h2>Yayınlama Araçları üzerinden</h2><br>Rights Manager, referans dosyanızda bulunan içerikler üzerinde hangi durumlarda münhasır hak sahibi olduğunuzu belirlemenize olanak tanır. Bu, insanların içeriğinizi izlemesine izin verilen ülkeleri gösterir. Bir referans dosyaya ait aşağıdaki unsurları kontrol edilmek üzere belirtebilirsiniz:<br><br><ul><li>Video ve ses</li><li>Sadece video</li><li>Sadece ses</li></ul><br>Yayınlama Araçları ile bir video/ses parçasında yer alan içeriğin %100’ü için sahiplik iddiasında bulunursunuz. Referans dosya olarak bir video yüklerseniz, sadece münhasır olarak sahip olduğunuz içerikler için sahiplik belirtin.<br><br><h2>API aracılığıyla</h2><br>İçeriğin API üzerinden aktarılması, yayıncılara videoların bazı <em>kısımlarını sahiplik iddialarından muaf tutma</em> olanağı tanır. Bu, örneğin bir başkasının yaratıcı eserine videonuzda yer vermek üzere izin aldığınız, ancak söz konusu eserin telif haklarına sahip olmadığınız durumlarda oldukça önemlidir. Bu durumda, referans dosyanızın lisansa tabi içeriği barındıran kısmını dışarıda tutmanız uygun olur. <br><br>Ayrıntılar için <a href='https://developers.facebook.com/docs/graph-api/reference/video-copyright' target='_blank'>geliştirici belgelerine</a> göz atın.",
		"instruction":"",
		"_isComplete": true,
		"_pageLevelProgress": {
				"_isEnabled": true
		}
	},
	{
		"_id":"c-360",
		"_parentId":"b-360",
		"_type":"component",
		"_component":"graphic",
		"_classes":"",
		"_layout":"full",
		"title":"Dosya kısımlarını dışarıda tutma",
		"displayTitle":"Dosya kısımlarını dışarıda tutma",
		"body":"Referans dosyalarınızın sadece münhasır haklarına sahip olduğunuz materyalleri içeriyor olması önemlidir. Bunun nedeni, referans dosyaların diğer kişi ve Sayfalar tarafından yüklenmiş videoları engellemek veya kaldırmak amacıyla kullanılabilmesidir.<br><br><h2>Referans dosyalar eklerken</h2><br>Hakları münhasır olarak sizin kontrolünüzde olmayabilecek materyaller içeren bir referans dosya ekliyorsanız, size ait olmayan kısımları dışarıda tutmanız gerekir. Bu sayede, söz konusu kısımların eşleşmeleri algılamasının önüne geçilir.",
		"instruction":"",
		"_graphic": {
				"alt": "İzinler verme",
				"large": "course/en/images/exclude_add.png",
				"small": "course/en/images/exclude_add.png"
		},
		"_isComplete": false,
		"_pageLevelProgress": {
				"_isEnabled": true
		}
	},
	{
		"_id":"c-362",
		"_parentId":"b-360",
		"_type":"component",
		"_component":"graphic",
		"_classes":"",
		"_layout":"full",
		"title":"Dosya kısımlarını dışarıda tutma",
		"displayTitle":"",
		"body":"Referans Dosya Ekle iletişim kutusunun alt kısmında <strong>Dışarıda tutulan kısımlar</strong> adında bir bölüm vardır. Dışarıda tutulacak kısımlar eklemek için <span style='padding:.2em .45em;background-color:#eee;border:1px solid #999;border-radius:4px;'><strong>+</strong></span> düğmesine tıklayın.",
		"instruction":"",
		"_graphic": {
				"alt": "İzinler verme",
				"large": "course/en/images/exclude_set.png",
				"small": "course/en/images/exclude_set.png"
		},
		"_isComplete": false,
		"_pageLevelProgress": {
				"_isEnabled": false
		}
	},
		{
		"_id":"c-364",
		"_parentId":"b-360",
		"_type":"component",
		"_component":"text",
		"_classes":"",
		"_layout":"full",
		"title":"Dosya kısımlarını dışarıda tutma",
		"displayTitle":"",
		"body":"Dışarıda tutmak istediğiniz kısımların başlangıç ve bitiş zamanlarını girmeniz gerekecektir. Referans dosyanızda münhasır olarak sizin kontrolünüzde olmayan içeriklerin bulunduğu kısımlar için hem ses hem de videoyu dışarıda tutabilirsiniz. Sesin bir başkasına ait olduğu (örneğin bir şarkı) kısımlarda, dışarıda tutulan kısım için “İçerik türü” ayarını “Sadece ses” olarak değiştirin.<br><br><h2>Mevcut referans dosyalar</h2><br>Daha önce eklediğiniz referans dosyalar için Referans Dosyayı Düzenleyin iletişim kutusunu açıp dışarıda tutulacak kısımları aynı yöntemle ekleyebilirsiniz.",
		"instruction":"",
		"_isComplete": true,
		"_pageLevelProgress": {
				"_isEnabled": false
		}
	},
	{
		"_id":"c-370",
		"_parentId":"b-370",
		"_type":"component",
		"_component":"graphic",
		"_classes":"",
		"_layout":"full",
		"title":"Eşleşme kuralları belirleme: İşlemler",
		"displayTitle":"Eşleşme kuralları belirleme",
		"body":"Bir eşleşme bulunduğunda ne yapılması gerektiğini Rights Manager’a bildiren eşleşme kurallarının kullanılması zorunludur. Hak sahipleri, büyük hacimli materyal kütüphanelerinin yönetiminde olağanüstü derecede yardımcı olabilecek otomatik işlemleri tetikleyen eşleşme kuralları uygulayabilir.<br><br>Her eşleşme kuralı, bir veya daha fazla sayıda <strong>koşulun</strong> karşılanması durumunda uygulanacak en az bir <strong>işlem</strong> içermelidir.<br><br><div style='background-color:#eceff5; padding:2.5em;'><img src='course/en/images/tip.png' style='height:5.5em;float:left;position:relative;left:-2em;top:-2em;padding:0;'><strong>Eşleşme kuralı koşullarından hiçbirini karşılamayan eşleşmeler Rights Manager’da görünmez.</strong></div><br><h2 style=margin-top:2.5em;>İşlemler</h2><br>Dört işlem uygulama seçeneği vardır ancak her işlem tüm pazarlarda kullanılamayabilir:<br><br><ol><li><strong>Engelle: </strong>İçeriğin, içeriği yükleyen kişi dışında biri tarafından görüntülenmesine engel olur. Bunun üzerine bu kişi, Facebook üzerinden hak sahibi ile doğrudan iletişime geçerek engelleme işlemine itirazda bulunabilir</li><br><li><strong>Reklam geliri üzerinde hak iddiasında bulun:</strong> Eşleşmenin Facebook’ta yayında kalmasına izin verir ve hak sahibinin referans dosyası ile eşleşen bir video sırasında bir reklam arası verilmesi halinde ortaya çıkacak kazancın bir kısmı için talepte bulunur.</li><br><li><strong>İzle:</strong> Videonun Facebook’ta paylaşılmaya devam etmesine izin vererek görüntülemeler ve Sayfa takipleri gibi hareketleri izlemenize olanak tanır. “İzle” işlemi uygulanan eşleşmeler, reklam aralarından para kazanmaya uygundur. Hak sahibi daha sonra başka bir işlem uygulamaya karar verebilir.</li><br><li><strong>Eşleşmeyi manuel olarak incele:</strong> Eşleşen kısımları bir Rights Manager Sayfa yöneticisi tarafından manuel inceleme için işaretler. Eşleşen videolar 30 gün sonra Manuel İnceleme bölümünden kaldırılır.</li></ol>",
		"instruction":"",
		"_graphic": {
				"alt": "İzinler verme",
				"large": "course/en/images/actions.png",
				"small": "course/en/images/actions.png"
		},
		"_isComplete": false,
		"_pageLevelProgress": {
				"_isEnabled": true
		}
	},
	{
		"_id":"c-372",
		"_parentId":"b-370",
		"_type":"component",
		"_component":"graphic",
		"_classes":"",
		"_layout":"full",
		"title":"Eşleşme kuralları belirleme: Koşullar",
		"displayTitle":"",
		"body":"Bir eşleşme kuralı oluştururken, ilk olarak bir işlem seçersiniz. Örneğin: “<strong>Bu videonun reklam geliri üzerinde hak iddiasında bulun</strong> / <em>İçerik aşağıdaki koşulları karşılarsa:</em>”<br><br>Engelle, Reklam geliri üzerinde hak iddiasında bulun veya İzle otomatik işlemleri uygulanmış videolar <strong>Tamamlananlar</strong> bölümünde incelenebilirken, otomatik işlemlere yönelik düzeye ulaşamayan (veya manuel inceleme için işaretlenmiş olan) eşleşmeler <strong>Manuel İnceleme</strong> bölümünde görüntülenir.<br><br><div style='background-color:#eceff5; padding:2.5em;'><img src='course/en/images/tip.png' style='height:8.5em;float:left;position:relative;left:-2em;top:-1em;padding:0;'>Asla otomatik hale getirilemeyen bir başka işlem de <strong>Kaldırma talebine ekle</strong> işlemidir. Hak sahipleri, kaldırma taleplerini kullanarak Facebook’tan kendilerine ait telif haklarını ihlal ettiğini düşündükleri içerikleri kaldırmasını isteyebilir. Şikayet edilen videolar Facebook’tan tamamen kaldırılır. Rights Manager’ın Tamamlananlar veya Manuel İnceleme bölümlerindeki videoları kaldırma taleplerine ekleyebilirsiniz.</div><h2 style=margin-top:2.5em;>Koşullar</h2><br>Yöneticiler aşağıdaki koşullara göre eşleşme kurallarını özelleştirebilir:<br><br><ul><li><strong>İzleyicinin konumu</strong>: İzleyicinin, eşleşen videoyu izlediği ülke</li><br><li><strong>İçerik türü</strong>: Eşleşen videonun referans dosyanızla çakışan video ve/veya ses parçaları<br><img src='course/en/images/content_type.png'><br>Eşleşmeleri daraltmak için birden fazla içerik türü seçebilirsiniz:</li><br><table style='position:relative;left:.7em;'><tr style='background-color:#eee'><td style='padding:.6em;'>Video ve ses</td><td style='padding:.6em;'>Eşleşmelerin, referans dosyanızla eşleşen hem video hem de ses kısımları içermesi gerekir.</td></tr><tr><td style='padding:.6em;'>Sadece video</td><td style='padding:.6em;'>Eşleşmeler referans dosyanızla eşleşen video kısımları içerir, ses kısımları içermez</td></tr><tr style='background-color:#eee'><td style='padding:.6em;'>Sadece ses</td><td style='padding:.6em;'>Eşleşmeler referans dosyanızla eşleşen ses kısımları içerir, video kısımları içermez</td></tr><tr><td style='padding:.6em;'>Sadece video, Sadece ses</td><td style='padding:.6em;'>Eşleşmeler referans dosyanızla eşleşen video veya ses kısımları içerir, ancak her ikisini aynı anda içermez</td></tr><tr style='background-color:#eee'><td style='padding:.6em;'>Video ve ses, Sadece video</td><td style='padding:.6em;'>Eşleşmelerin, referans dosyanızla eşleşen video kısımları içermesi gerekir</td></tr><tr><td style='padding:.6em;'>Video ve ses, Sadece ses</td><td style='padding:.6em;'>Eşleşmelerin, referans dosyanızla eşleşen ses kısımları içermesi gerekir</td></tr><tr style='background-color:#eee'><td style='padding:.6em;'>Video ve ses, Sadece video, Sadece ses</td><td style='padding:.6em;'>Eşleşmeler, eşleşen herhangi bir videoyu veya sesi içerir</td></tr></div><table><br><li><strong>Eşleşme uzunluğu</strong>: Eşleşen bir videonun referans dosyanızla çakıştığı sürenin uzunluğu</li><br><li><strong>Yayıncı türü</strong>: İçeriğin bir Sayfa veya bir kişi tarafından paylaşılmasına göre eşleştirme tercihinde bulunma</li><br><li><strong>Gizlilik türü</strong>: Özel (herkese açık olmayan), herkese açık veya her ikisi</li><br><li><strong>Çakışma Yüzdesi (Eşleşme)</strong>: Referans ve eşleşen videoların çakışma süresinin, eşleşen videonun toplam uzunluğuna bölünmesiyle bulunan oran. Bu oran, yüklenen videonun referans dosya ile eşleşme yüzdesini gösterir.</li><br><li><strong>Çakışma Yüzdesi (Referans)</strong>: Çakışma süresinin referans videonun uzunluğuna bölünmesiyle elde edilen oran. Bu oran, referans dosyanın yüklenen video ile eşleşme yüzdesini gösterir. </li></ul><br>Koşulların hepsi tüm pazarlarda uygulanamaz.<br><br>",
		"instruction":"",
		"_graphic": {
				"alt": "İzinler verme",
				"large": "course/en/images/condition.png",
				"small": "course/en/images/condition.png"
		},
		"_isComplete": false,
		"_pageLevelProgress": {
				"_isEnabled": true
		}
	},
	{
		"_id":"c-374",
		"_parentId":"b-370",
		"_type":"component",
		"_component":"text",
		"_classes":"",
		"_layout":"full",
		"title":"Eşleşme kuralları belirleme",
		"displayTitle":"",
		"body":"Bir işlemin geçerli olabilmesi için “<strong>Bu videonun reklam geliri üzerinde hak iddiasında bulun</strong> / <em>(1) izleyici Filipinler veya Singapur’da ise ve (2) video bir Sayfa tarafından herkese açık olarak paylaşıldıysa</em>” gibi birden fazla koşulun karşılanmasını şart koşabilirsiniz.<br><br><em>Not: Eşleşen bir video özel olarak paylaşılmışsa, hak sahibi sadece yükleyen kişinin hangi ülkede olduğunu ve çakışan kısmı görebilecektir</em>.<br><br>Bu işlemler hem Canlı hem de normal videolar için geçerlidir ancak Canlı videolar için kullanılamayan iki istisna vardır:<br><br><ol><li>Yüzde oranına dayalı koşullar (Canlı yayınların süresi yayın boyunca uzamaya devam eder)</li><li>İzleyicinin konumu</li></ol>.<h2 style=margin-top:2.5em;>Birden fazla işlem içeren eşleşme kuralları</h2><br>Birden fazla işlem içeren eşleşme kuralları oluşturabilirsiniz. Bir eşleşme algılandığında, koşullar listedeki sıralamalarına göre değerlendirilir. Dolayısıyla, işlemleri uygulanmalarını istediğiniz sıralamayla oluşturmanız önemlidir. <br><br><div style='background-color:#eceff5; padding:2.5em;'><img src='course/en/images/tip.png' style='height:7.5em;float:left;position:relative;left:-2em;top:-2em;padding:0;'><strong>İşlemlerin bir eşleşme kuralı dahilindeki sırası önemlidir.</strong> Rights Manager eşleşme kurallarını yukarıdan aşağıya doğru “okur”. Bu yüzden, işlemleri uygulanmasını istediğiniz sıralamayla oluşturmanız gerekir.</div><br><br><strong>İşlem</strong> / koşullar olarak sunulan karmaşık bir eşleşme kuralı örneğini aşağıda bulabilirsiniz:<br><br><ul><li>İşlem 1: <strong>Bu videoyu engelle</strong> / Belçika, Hollanda, Almanya ve Fransa hariç dünya çapında.</li><br><li>İşlem 2: <strong>Bu videonun reklam geliri üzerinde hak iddiasında bulun</strong> / eşleşen kısmın uzunluğu beş dakikanın üzerindeyse.</li></ul><br>Bu örnekte, IP adresleri sadece bu dört Avrupa ülkesinde bulunan izleyiciler referans videonun herhangi bir kısmı ile eşleşen videoları görüntüleyebilirken, hak sahibi sadece bu dört ülkede olmak kaydıyla beş dakikanın üzerinde uzunluğa sahip eşleşmelerden reklam geliri talebinde bulunabilir. Bu videonun daha küçük kısımlarını yükleyen kişiler de, sadece içeriğin otomatik olarak engellenmediği bu dört ülkede potansiyel olarak reklam geliri talebinde bulunabilir.<br><br>Bu eşleşme kuralındaki işlemleri yeniden sıraladığımızda neler olduğuna bakalım:<br><br><ul><li>İşlem 1: <strong>Bu videonun reklam geliri üzerinde hak iddiasında bulun</strong> / eşleşen kısmın uzunluğu beş dakikanın üzerindeyse.</li><br><li>İşlem 2: <strong>Bu videoyu engelle</strong> / Belçika, Hollanda, Almanya ve Fransa hariç dünya çapında.</li></ul><br>Bu ikinci örnekte, beş dakikanın üzerindeki <em>tüm</em> eşleşmeler potansiyel olarak hak sahibine dünya çapında gelir kazandırabilir ve <em>sadece</em> beş dakikanın altında uzunluğa sahip eşleşmeler coğrafi olarak kısıtlanır. <br><br>Uygulanan tüm işlemleri istediğiniz zaman <strong>Tamamlananlar</strong> bölümünde görebilir ve işlemleri video bazında ayarlayabilirsiniz.<h2 style=margin-top:2.5em;>Eşleşme kurallarını uygulama</h2><br>Eşleşme kurallarını iki şekilde uygulayabilirsiniz:<br><br><ul><li><strong>Videoyu Facebook’a eklediğinizde</strong>: Bir gönderi yayınlarken veya Rights Manager üzerinden referans dosyalar yüklerken, yüklediğiniz her içerik için eşleşme kuralları uygulayabilirsiniz</li><br><li><strong>Bir video paylaşıldıktan sonra</strong>, Video Kütüphanenizdeki “Videoyu Düzenle” iletişim kutusundan veya Referans Dosyalar kütüphanenizdeki “Referans Dosyayı Düzenleyin” kısmından</li></ol><br>Eşleşme kuralları uygulama işlemini kolaylaştırmak için Rights Manager’ın Ayarlar kısmından özel sahiplik ayarları belirleyebilirsiniz. Yükleme aracında veya Video Kütüphanesinde “Eşleşen içerikleri sapta” seçimi yaptığınızda bu varsayılan seçimler otomatik olarak doldurulacaktır.",
		"instruction":"",
		"_graphic": {
				"alt": "Koşullar",
				"large": "course/en/images/condition.png",
				"small": "course/en/images/condition.png"
		},
		"_isComplete": false,
		"_pageLevelProgress": {
				"_isEnabled": true
		}
	},
	{
		"_id":"c-380",
		"_parentId":"b-380",
		"_type":"component",
		"_component":"graphic",
		"_classes":"",
		"_layout":"full",
		"title":"Kişi ve Sayfalara içeriklerinizi paylaşma izni verme",
		"displayTitle":"Kişi ve Sayfalara içeriklerinizi paylaşma izni verme",
		"body":"Bir referans dosya yüklediğinizde (bir gönderinin parçası olarak veya Referans Dosyalar kütüphanesi üzerinden), kişileri ve Sayfaları <strong>beyaz listeye alarak</strong> Rights Manager’ın bu kişi ve Sayfalara ait videoları referans dosyanız ile eşleştirmemesini sağlayabilirsiniz. ",
		"instruction":"",
		"_graphic": {
				"alt": "İzinler verme",
				"large": "course/en/images/upload_whitelist.png",
				"small": "course/en/images/upload_whitelist.png"
		},
		"_isComplete": false,
		"_pageLevelProgress": {
				"_isEnabled": false
		}
	},
	{
		"_id":"c-382",
		"_parentId":"b-380",
		"_type":"component",
		"_component":"graphic",
		"_classes":"",
		"_layout":"full",
		"title":"",
		"displayTitle":"",
		"body":"Hak sahipleri bir referans dosya için (video seviyesi) veya tüm referans dosyalar için (profil veya Sayfa seviyesi) beyaz listeye alma işlemi gerçekleştirebilir.<br><br>Hak sahipleri Sayfaları ve kişileri manuel olarak ayrı ayrı girebilecekleri gibi, Sayfa veya profillerin Facebook internet adreslerini (URL) içeren bir CSV dosyasını içe aktararak birden fazla kuruluşa referans dosyalarınızdaki içerikleri kullanma izni verebilir. Virgülle ayrılmış internet adreslerini (URL) içeren bir düz metin dosyasını içe aktarmak veya bir elektronik tablodan CSV dosyası oluşturmak için Sayfa Ayarlarına gidin.",
		"instruction":"",
		"_graphic": {
				"alt": "İzinler verme",
				"large": "course/en/images/bulk_permissions.png",
				"small": "course/en/images/bulk_permissions.png"
		},
		"_isComplete": false,
		"_pageLevelProgress": {
				"_isEnabled": false
		}
	},
	{
		"_id":"c-390",
		"_parentId":"b-390",
		"_type":"component",
		"_component":"text",
		"_classes":"",
		"_layout":"full",
		"title":"",
		"displayTitle":"",
		"body":"Örneğin: Bir televizyon kanalı, aynı içeriği farklı coğrafi pazarlarda paylaşması için işbirliği yaptığı yerel kanalların Sayfalarını beyaz listeye alabilir. Bir müzik grubu orijinal şarkılarını Sayfaları aracılığıyla aktarıp, yeni çalışmalarını arkadaşları ve aileleriyle paylaşmak için üyelerinin kişisel profillerini beyaz listeye alabilir. <br><br>Hak sahipleri, <strong>eşleşme kuralları</strong> ile <strong>izinleri</strong> birlikte kullanarak Rights Manager’ı işletme hedeflerine uygun şekilde özelleştirebilir. Örneğin, sadece belirli uzunluktaki ve herkese açık paylaşılmış bir içeriğin engellenmesini, fakat bu kriterleri karşılamayan eşleşmelerin engellenmemesini isteyebilirsiniz.",
		"instruction":"",
		"_isComplete": true,
		"_pageLevelProgress": {
				"_isEnabled": false
		}
	},
	{
		"_id":"c-399",
		"_parentId":"b-399",
		"_type":"component",
		"_component":"co-jump",
		"_classes":"color-test",
		"_preLinkBody":"Referans dosyalarınız yüklendi ve Facebook eşleşmeleri nasıl yöneteceğini biliyor. Fakat Rights Manager içeriği nasıl eşleştirecek? Ayrıca, potansiyel eşleşmeler ortaya çıktığında Sayfa yöneticileri ne yapabilir? Bu sürece ",
		"_linkBody":"adım adım",
		"_postLinkBody":" göz atalım.",
		"_link":"#/id/co-400",
		"_graphic":"adapt/css/assets/icon_nextPage.png",
		"_pageLevelProgress": {
			"_isEnabled": false
		}
	},
	
	
	
	
	{
		"_id":"c-400",
		"_parentId":"b-400",
		"_type":"component",
		"_component":"text",
		"_classes":"",
		"_layout":"full",
		"title":"Facebook bir eşleşme tespit ettiğinde ne olur?",
		"displayTitle":"",
		"body":"Hak sahipleri, hem sahiplik hem de kullanıma ilişkin ihtilafları Rights Manager içinde izleyebilir, yönetebilir ve çözüme kavuşturabilir.<br><br>Rights Manager iki tür eşleşme saptar:<br><br><ol><li><strong>Referans dosya ile referans dosya eşleşmesi</strong> (sahiplik ihtilafı): İki yayıncı da aynı içeriğe aynı ülkede münhasır olarak <em>sahip</em> olduğunu iddia ediyor.</li><li><strong>Referans dosya ile yüklenen video eşleşmesi</strong> (kullanım ihtilafı): Bir kişi, başka bir yayıncıya ait bir referans dosya ile <em>eşleşen</em> bir video yüklüyor.</li></ol>",
		"instruction":"",
		"_isComplete": true,
		"_pageLevelProgress": {
				"_isEnabled": true
		}
	},
	{
		"_id":"c-410",
		"_parentId":"b-410",
		"_type":"component",
		"_component":"graphic",
		"_classes":"",
		"_layout":"full",
		"title":"Sahiplik konusundaki anlaşmazlıkları ele alma",
		"displayTitle":"Sahiplik konusundaki anlaşmazlıkları ele alma",
		"body":"Bir yayıncının Rights Manager’da zaten bir başka yayıncının referans dosyası olarak bulunan bir içeriğe sahip olduğu iddiasıyla bir referans dosya oluşturması durumunda, ikinci yayıncı bir ihtilaf tespit edildiğine dair bilgilendirilir ve ihtilafa konu olan kısımları <strong>Referans Dosya</strong> bölümünün <strong>İhtilaflar</strong> kısmından inceleyebilir:",
		"instruction":"",
		"_graphic": {
			"src": "course/en/images/conflict_tab.png",
			"alt": "Arayüz görseli"
		},
		"_isComplete": false,
		"_pageLevelProgress": {
				"_isEnabled": true
		}
	},
	{
		"_id":"c-420",
		"_parentId":"b-420",
		"_type":"component",
		"_component":"graphic",
		"_classes":"",
		"_layout":"full",
		"title":"",
		"displayTitle":"",
		"body":"Bir yönetici listeden bir video seçtiğinde, ihtilafa konu olan kısımlar video oynatıcının alt tarafında kırmızı ile işaretlenir.",
		"instruction":"",
		"_graphic": {
			"src": "course/en/images/conflict.png",
			"alt": "Arayüz görseli"
		},
		"_isComplete": false,
		"_pageLevelProgress": {
				"_isEnabled": true
		}
	},
	{
		"_id":"c-430",
		"_parentId":"b-430",
		"_type":"component",
		"_component":"text",
		"_classes":"",
		"_layout":"full",
		"title":"Sahiplik konusundaki anlaşmazlığın çözülmesi",
		"displayTitle":"",
		"body":"İçeriğin ihtilafa konu olan kısmı ikinci yayıncının referans dosyasından otomatik olarak çıkarılır. Buna rağmen, ikinci yayıncı ihtilafa konu olan kısımları Referans Dosyalar kütüphanesinde görüntüleyebilir ve içeriğin sahipliği konusunda itirazda bulunabilir. <br><br><div style='background-color:#eceff5; padding:2.5em;'><img src='course/en/images/tip.png' style='height:7.5em;float:left;position:relative;left:-2em;top:-2em;padding:0;'>İkinci yayıncı yedi gün içinde itirazda bulunmazsa, ihtilafa konu olan kısımlar 1. Yayıncıya döner ve 2. Yayıncının referans dosyasından kalıcı olarak çıkarılır.</div><br><br><ul><li><strong>2. Yayıncının referans dosya ihtilafına itiraz etmeye karar vermesi durumunda</strong>, 1. Yayıncıya bilgi verilir ve 2. Yayıncının hak iddiasını <em>kabul veya reddetmek için yedi gün</em> süre tanınır. İhtilafa konu olan kısımdaki eşleşmeler, ihtilafın sürdüğü dönem boyunca her iki yayıncı tarafından da kullanılamaz. İhtilafın çözüme kavuşturulmasının ardından eşleşmeler serbest bırakılır ve kazanan yayıncının panosuna eklenir.</li><br><li><strong>1. Yayıncı bir ihtilafa yedi gün içinde yanıt vermezse</strong>, Rights Manager içinde 2. Yayıncı münhasır hak sahibi olarak kabul edilir. Bunun anlamı şudur:<ul><li>2. Yayıncı referans dosyasında yer alan içerikleri barındıran eşleşen videoları görebilir</li><li>Facebook 1. Yayıncının referans dosyasındaki çakışan kısmı dikkate almaz. </li><li>1. Yayıncıya ait referans dosyanın, 2. Yayıncıya ait referans dosya ile çakışmayan tüm kısımları için 1. Yayıncı adına içerik eşleştirmesi devam eder.</li></ul></li></ul><br><strong>İhtilaf çözüme kavuşturulamazsa veya 1. Yayıncı itirazı reddeder</strong> ve 2. Yayıncı da temyize götürmek isterse, 2. Yayıncı Facebook tarafından incelenmek üzere yasal mahkeme belgelerini yükleyebilir.",
		"instruction":"",
		"_isComplete": true,
		"_pageLevelProgress": {
				"_isEnabled": false
		}
	},
	{
		"_id":"c-440",
		"_parentId":"b-440",
		"_type":"component",
		"_component":"text",
		"_classes":"",
		"_layout":"full",
		"title":"Olası eşleşmeleri izleme",
		"displayTitle":"Olası eşleşmeleri izleme",
		"body":"Rights Manager, kullanım rahatlığı sağlamak için eşleşmeleri otomatik bir işlemin uygulanıp uygulanmamış olmasına göre düzenler. Eşleşen videolarınızı bulabileceğiniz iki yer vardır:<br><br><ul><li><strong>Manuel İnceleme</strong> bölümü, üzerine herhangi bir otomatik işlem uygulanmamış eşleşen videoları gösterir.</li><li><strong>Tamamlanan</strong> işlemler bölümü, işlem veya eşleşme kuralı uygulanmış eşleşen videoları gösterir.</li></ul><br>Hak sahipleri her iki arayüzden de Kaldırma özelliğine erişerek eşleşmeyi Facebook’a gönderilmek üzere bir kaldırma talebine ekleyebilir. Kaldırma taleplerini Rights Manager’ın Gönderilmemiş Şikayetler bölümünden Facebook’a gönderebilirsiniz.",
		"instruction":"",
		"_isComplete": false,
		"_pageLevelProgress": {
				"_isEnabled": true
		}
	},
	{
		"_id":"c-442",
		"_parentId":"b-440",
		"_type":"component",
		"_component":"graphic",
		"_classes":"",
		"_layout":"left",
		"title":"",
		"displayTitle":"",
		"body":"",
		"instruction":"",
		"_graphic": {
			"src": "course/en/images/RM_nav.png",
			"alt": "Arayüz görseli"
		},
		"_isComplete": false,
		"_pageLevelProgress": {
				"_isEnabled": true
		}
	},
	{
		"_id":"c-445",
		"_parentId":"b-440",
		"_type":"component",
		"_component":"text",
		"_classes":"",
		"_layout":"right",
		"title":"",
		"displayTitle":"",
		"body":"İki panonun herhangi birinde görünen tüm potansiyel eşleşmeler için eşleşen video ve/veya ses kısımlarını inceleyebilirsiniz.<br><br>Şimdi hangi bölümü ne zaman kullanmanız gerektiği ve her birinde eşleşmelerle ilgili başka hangi işlemleri gerçekleştirebileceğinizi inceleyelim.",
		"instruction":"",
		"_isComplete": true,
		"_pageLevelProgress": {
				"_isEnabled": true
		}
	},
	{
		"_id":"c-450",
		"_parentId":"b-450",
		"_type":"component",
		"_component":"graphic",
		"_classes":"",
		"_layout":"full",
		"title":"",
		"displayTitle":"",
		"body":"<h2>Manuel İnceleme bölümü</h2><br>Manuel İnceleme bölümü, eşleşmenin nasıl Manuel İnceleme bölümüne ulaştığını (örneğin, otomatik bir işlem için gereken düzeyi karşılayamaması sonucunda) belirleyebileceğiniz, eşleşmelerinizi filtreleyebileceğiniz ve eşleşmeyle ilgili işlem başlatabileceğiniz “İşlem” sütununu içerir.<br><br>Sizden her işlem için konum belirtmeniz istenecektir (dünya çapında, ülke bazında). İşlemin, videoların izlenebildiği coğrafi bölgeler için geçerli olacağını unutmayın.",
		"instruction":"",
		"_graphic": {
			"src": "course/en/images/actions_tab.png",
			"alt": "Arayüz görseli"
		},
		"_isComplete": false,
		"_pageLevelProgress": {
				"_isEnabled": true
		}
	},
	{
		"_id":"c-452",
		"_parentId":"b-450",
		"_type":"component",
		"_component":"graphic",
		"_classes":"",
		"_layout":"left",
		"title":"",
		"displayTitle":"",
		"body":"Eşleşen herhangi bir yüklemeyi seçerek referans dosyanızla kare bazında karşılaştırın. Video özel olarak paylaşılmışsa, hak sahipleri eşleşen kısımlar çubuğunun tamamını ve eşleşen kısımları görüntüleyebilir, fakat yükleyen kişi hak sahibinin işlemine itiraz etmeyi tercih etmediği sürece söz konusu özel videoyu görüntüleyemez.",
		"instruction":"",
		"_graphic": {
			"src": "course/en/images/match_actions.png",
			"alt": "Arayüz görseli"
		},
		"_isComplete": false,
		"_pageLevelProgress": {
				"_isEnabled": true
		}
	},
	{
		"_id":"c-455",
		"_parentId":"b-450",
		"_type":"component",
		"_component":"survey-radio",
		"_classes":"",
		"_layout":"right",
		"title":"",
		"displayTitle":"",
		"body":"",
		"instruction":"Menüden bir işlem seçerek listenin altında açıklamasını görüntüleyin.",
		"userSelection": [],
		"_items": [
			{
				"label": "Eşleşmeyi izleme",
				"value": "1"
			},
			{
				"label": "Reklam geliri üzerinde hak iddiasında bulunma",
				"value": "2"
			},
			{
				"label": "Eşleşmeyi engelleme",
				"value": "3"
			},
			{
				"label": "Kaldırma talebine ekleme",
				"value": "4"
			},
			{
				"label": "Görülmedi olarak işaretleme",
				"value": "5"
			},
			{
				"label": "İçerik eşleşmiyor",
				"value": "6"
			},
			{
				"label": "Eşleşmelerden kaldırma",
				"value": "7"
			},
			{
				"label": "Eşleşmeleri görüntüleme",
				"value": "8"
			}
		],
		"_isComplete": false,
		"_pageLevelProgress": {
				"_isEnabled": false
		}
	},
	{
		"_id":"c-460",
		"_parentId":"b-460",
		"_type":"component",
		"_component":"survey-feedback",
		"_classes":"texture_concrete",
		"_layout":"full",
		"title":"",
		"displayTitle":"",
		"body":"",
		"instruction":"",
		"feedbackBody": "",
		"feedbackPostBody": "",
		"prefix": "",
		"suffix": "",
		"limitFeedback": true,
		"feedback": [
			{
				"resultsFor": ["c-455"],
				"condition": "is",
				"value": "1",
				"response": "<strong>Eşleşmeyi izleme</strong>: Eşleşmenin Facebook’ta paylaşılmış ve herkese görünür kalmasına olanak tanırken, Rights Manager’da takip edilmesini sağlar."
			},
			{
				"resultsFor": ["c-455"],
				"condition": "is",
				"value": "2",
				"response": "<strong>Reklam geliri üzerinde hak iddiasında bulunma</strong> (kullanılabilir olduğunda): Bu videoda gösterilen tüm reklam araları için ödeme almak istediğinizi gösterir."
			},
			{
				"resultsFor": ["c-455"],
				"condition": "is",
				"value": "3",
				"response": "<strong>Eşleşmeyi engelleme</strong>: İçeriğin yükleyen kişi dışında herhangi biri tarafından görüntülenebilir olmasını önler; medyayı yükleyen kişiye Facebook üzerinden doğrudan hak sahibine işlemle ilgili itirazda bulunma seçeneği sunar.<br><br><img src='course/en/images/blocked.png'>"
			},
			{
				"resultsFor": ["c-455"],
				"condition": "is",
				"value": "4",
				"response": "<strong>Kaldırma talebine ekleme</strong>: Eşleşen içeriği, Facebook tarafından işlenmek üzere göndermek amacıyla kaldırma talebine ekler. Eşleşmeleri kaldırma talebine ekledikten sonra göndermek için “Kaldırma Talebini Gönder” seçeneğine tıklamanız gerekir.<br><br>Hak sahipleri her bir kaldırma talebine 150 adede kadar eşleşen video ekleyebilir."
			},
			{
				"resultsFor": ["c-455"],
				"condition": "is",
				"value": "5",
				"response": "<strong>Görülmedi olarak işaretleme</strong>: Daha sonra incelenmek üzere işaretlenmiş olarak kalması için eşleşmenin durumunu “görülmedi” olarak tutar (bir e-postayı okunmamış olarak işaretlemeye benzer)."
			},
			{
				"resultsFor": ["c-455"],
				"condition": "is",
				"value": "6",
				"response": "<strong>İçerik eşleşmiyor</strong>: Facebook’a, içeriğin eşleşmediğini ve Rights Manager’da gösterilmemesi gerektiğini bildirir. Hatalı eşleşmelerin bildirilmesi, en doğru şekilde eşleşen videoların gösterilmesine yardımcı olur."
			},
			{
				"resultsFor": ["c-455"],
				"condition": "is",
				"value": "7",
				"response": "<strong>Eşleşmelerden kaldırma</strong>: Eşleşmeyi kaldırarak Sayfanızın panosunda görünmemesini sağlar."
			},
			{
				"resultsFor": ["c-455"],
				"condition": "is",
				"value": "8",
				"response": "<strong>Eşleşmeleri görüntüleme</strong>:<ul><li>Eşleşen videoyu paylaşan Sayfadan.</li><li>Referans dosya için tüm eşleşmeler.</li></ul>"
			}
		],
		"_isComplete": false,
		"_pageLevelProgress": {
			"_isEnabled": true
		}
	},
	{
		"_id":"c-462",
		"_parentId":"b-460",
		"_type":"component",
		"_component":"graphic",
		"_classes":"",
		"_layout":"left",
		"title":"",
		"displayTitle":"",
		"body":"<h2>Tamamlanan İşlemler panosu</h2>",
		"instruction":"",
		"_graphic": {
			"src": "course/en/images/completed.png",
			"alt": "Tamamlanan İşlemler panosu"
		},
		"_isComplete": false,
		"_pageLevelProgress": {
			"_isEnabled": true
		}
	},
	{
		"_id":"c-465",
		"_parentId":"b-460",
		"_type":"component",
		"_component":"text",
		"_classes":"",
		"_layout":"right",
		"title":"",
		"displayTitle":"",
		"body":"Tamamlananlar alanı, otomatik veya manuel işlem uygulanmış olan eşleşen videoları gösterir.<br><br>Hak sahipleri, listenin üst kısmındaki sekmeleri kullanarak bu eşleşmeleri hangi otomatik işlemin uygulandığına göre sıralayabilirler: <br><br><ul><li>İzlenenler</li><li>Hak İddia Edilenler</li><li>Engellenenler</li><li>Şikayet Edilenler</li><li>Kaldırmalar</li></ul>",
		"instruction":"",
		"_isComplete": false,
		"_pageLevelProgress": {
			"_isEnabled": true
		}
	},

	{
		"_id":"c-470",
		"_parentId":"b-470",
		"_type":"component",
		"_component":"text",
		"_classes":"",
		"_layout":"full",
		"title":"Olası eşleşmeleri ele alma",
		"displayTitle":"Olası eşleşmeleri ele alma",
		"body":"Saptanan her potansiyel eşleşme için eşleşen dosya kısmını görüntüleyebilirsiniz. Eşleşmeleri filtreleyebilir veya hem Manuel İnceleme hem de Tamamlananlar bölümünden, eşleşen videoların kaldırılmasını talep edebilirsiniz.<h2 style='margin-top:2.5em;'>Eşleşmeleri filtreleme</h2><br>“Filtreler” menüsü hak sahiplerinin listelerini olası eşleşme özelliklerine göre kolayca sıralamasına olanak tanır:",
		"instruction":"",
		"_isComplete": false,
		"_pageLevelProgress": {
			"_isEnabled": true
		}
	},
	{
		"_id":"c-472",
		"_parentId":"b-470",
		"_type":"component",
		"_component":"text",
		"_classes":"",
		"_layout":"left",
		"title":"Filtreler",
		"displayTitle":"",
		"body":"<ul style='margin-top:-2.5em'><li><strong>Reklam araları içerir</strong> veya Reklam araları içermez</li><li><strong>Değiştirme tarihi</strong></li><li><strong>Yayınlanma tarihi</strong></li><li><strong>Süre</strong>: Eşleşen videonun tamamının uzunluğu</li><li><strong>Canlı Yayın Durumu</strong>: Canlı, Canlı Kaydedilmiş, Canlı bir video değil</li><li><strong>İzleme Türü</strong>: Sadece video, Video ve Ses, Sadece ses</li></ul>",
		"instruction":"",
		"_isComplete": false,
		"_pageLevelProgress": {
			"_isEnabled": true
		}
	},
	{
		"_id":"c-475",
		"_parentId":"b-470",
		"_type":"component",
		"_component":"text",
		"_classes":"",
		"_layout":"right",
		"title":"Daha fazla filtre",
		"displayTitle":"",
		"body":"<ul style='margin-top:-2.5em'><li><strong>Görüntüleme sayısı</strong></li><li><strong>Çakışma</strong>: Çakışan kısmın uzunluğu</li><li><strong>Yayıncı türü</strong>: Sayfa veya kişi</li><li><strong>Referans dosya</strong> (Başlık)</li><li><strong>Şikayet kodu</strong></li><li><strong>Başlık veya Açıklama</strong></li></ul>",
		"instruction":"",
		"_isComplete": false,
		"_pageLevelProgress": {
			"_isEnabled": true
		}
	},
	{
		"_id":"c-480",
		"_parentId":"b-480",
		"_type":"component",
		"_component":"text",
		"_classes":"",
		"_layout":"full",
		"title":"Kaldırma taleplerini gönderme",
		"displayTitle":"",
		"body":"<h2 style='margin-top:-2.5em;'>Kaldırma taleplerini gönderme</h2><br>Hak sahipleri, kaldırma taleplerini kullanarak Facebook’tan kendilerine ait telif haklarını ihlal ettiğini düşündükleri içerikleri kaldırmasını isteyebilir.<br><br>Hak sahipleri eşleşen bir videoyu Manuel İnceleme veya Tamamlananlar bölümlerinden bir kaldırma talebine ekleyebilir.<br><br><ol><li>“Kaldırma talebine ekle” işlemi uygulanmış eşleşmeler, Rights Manager’ın Gönderilmemiş Şikayetler bölümünde görüntülenir. Tek bir kaldırma talebi 150 adede kadar eşleşen video içerebilir.</li><br><li>Facebook’a bir kaldırma talebi göndermek için, “Kaldırma Talebini Gönder” düğmesini seçin, iletişim bilgilerinizi girin ve kaldırma talebinin konusunu oluşturan fikri mülkiyetin size ait olduğunu beyan edin.</li></ol><h2 style='margin-top:2.5em'>Eşleşen videoları yeniden etkinleştirme</h2><br>Bir hak sahibinin içeriği Facebook’a engellenmesi veya kaldırılması talebiyle şikayet etmesinin ardından yeniden etkinleştirmeye karar vermesi durumunda iki seçeneği vardır: Kaldırma talebini <strong>geri çekebilir</strong> (talep henüz işleme alınmadıysa) veya videoyu <strong>yeniden yükleyebilir</strong> (kaldırıldıktan sonra).<br><br><ol><li><strong>Bir şikayeti geri çekmek için</strong>, “Şikayet Edilenler” panosunda “Videolar” öğesini seçin ve “İşlemler” menüsünde “Kaldırma talebini iptal et” seçimini yapın. </li><br><li><strong>Bir videoyu yeniden yüklemek için</strong>, hak sahipleri kaldırılan videoların listesine Rights Manager’da “Kaldırma” bölümünden erişip “Videolar” öğesini seçtikten sonra “İşlemler” menüsünden “Videoyu yeniden yükle” seçeneğini belirleyebilir. Bazı durumlarda Facebook’un bir videoyu yeniden yükleyebilmesinin teknik kısıtlamalar nedeniyle mümkün olmayabileceğini lütfen unutmayın.",
		"instruction":"",
		"_isComplete": true,
		"_pageLevelProgress": {
			"_isEnabled": true
		}
	},
	{
		"_id":"c-490",
		"_parentId":"b-490",
		"_type": "component",
		"_component": "narrativeStrip",
		"_classes": "",
		"_layout": "full",
		"title": "Rights Manager’da kullanım ihtilaflarının çözülmesi",
		"displayTitle": "",
		"body": "<h2 style='margin-top:-2.5em'>Rights Manager’da kullanım ihtilaflarının çözülmesi</h2><br>Rights Manager içerik kullanımıyla ilgili ihtilafların çözümünü basitleştirir. Bir eşleşme tespit edilmiş ancak yükleyen kişi işlemi kabul etmiyorsa, ihtilafı çözüme kavuşturmaları için yükleyen kişiye ve hak sahibine Rights Manager dahilindeki araçlardan faydalanma olanağı sunarız. İhtilaflı içerik <strong>İtirazlar</strong> bölümünde görüntülenir ve Manuel İnceleme ve Tamamlanan İşlemler bölümlerinde kullanılan filtrelerle aynı filtreler kullanılarak sınıflandırılabilir.<br><br>Hak sahibi video üzerindeki iddiasını sürdürebilir, bu iddiadan vazgeçebilir veya dilediği zaman videonun kaldırılmasını talep edebilir.",
		"instruction": "",
		"_setCompletionOn":"inview",
		"_hasNavigationInTextArea": false,
		"mobileInstruction": "Bu, mobilde görüntüleme durumunda gösterilecek isteğe bağlı bir talimat metnidir.",
		"_images": [
			{
				"_id": 1,
				"src": "course/en/images/dispute_flow01.png"
			},
			{
				"_id": 2,
				"src": "course/en/images/dispute_flow02.png"
			},
			{
				"_id": 3,
				"src": "course/en/images/dispute_flow02.png"
			},
			{
				"_id": 4,
				"src": "course/en/images/dispute_flow02.png"
			},
			{
				"_id": 5,
				"src": "course/en/images/dispute_flow03.png"
			},
			{
				"_id": 6,
				"src": "course/en/images/dispute_flow04.png"
			},
			{
				"_id": 7,
				"src": "course/en/images/dispute_flow05.png"
			}
		],
		"_items": [
			{
				"_id": "top",
				"_initialItemIndex": 0,
				"_subItems": [
					{
						"_imageId": 1,
						"strapline": "Rights Manager bir eşleşme tespit eder ve hak sahibi bir manuel ya da otomatik işleme başvurur. Yükleyen kişi yedi gün içinde üç yöntemden birini kullanarak yanıt vermek zorundadır."
					},
					{
						"_imageId": 2,
						"strapline": "Yükleyen kişi işlemi dikkate almaz ve yedi günlük süre dolarsa, hak sahibinin işlemi geçerliliğini korur. İşlem “Reklam Geliri Üzerinde Hak İddiasında Bulun” ise ve başka bir ihtilaf söz konusu değilse, hak sahibi ödemesini alır."
					},
					{
						"_imageId": 3,
						"strapline": "Yükleyen kişi iddiaya itiraz ederse, hak sahibinin bu itiraza karşılık vermek için yedi gün süresi vardır."
					},
					{
						"_imageId": 4,
						"strapline": "Yükleyen kişi videoyu silerse, video kaldırılır ve başka bir işleme gerek kalmaz."
					},
					{
						"_imageId": 5,
						"strapline": "Yükleyen kişi iddiaya itiraz ederse, hak sahibi yükleyen kişinin itirazını onaylayabilir veya reddedebilir."
					},
					{
						"_imageId": 6,
						"strapline": "Bu noktada yükleyen kişinin iki seçeneği vardır:<br><br><ul><li>Videoyu silmek</li><li>Hak sahibinin reddini temyize göndermek</li></ul>"
					},
					{
						"_imageId": 7,
						"strapline": "Hak sahibi, yükleyen kişinin kullanımını onaylama veya bir kaldırma talebinde bulunma yönünde nihai kararını verir."
					}
				]
			}
		],
		"_isComplete": false,
		"_pageLevelProgress": {
			"_isEnabled": true
		}
	},
		{
		"_id":"c-495",
		"_parentId":"b-490",
		"_type":"component",
		"_component":"text",
		"_classes":"",
		"_layout":"full",
		"title":"Referans dosyayı ve eşleşme verilerini dışa aktarma",
		"displayTitle":"Referans dosyayı ve eşleşme verilerini dışa aktarma",
		"body":"Referans dosyayı ve eşleşme verilerini Microsoft Excel (.xls) veya virgülle ayrılmış değerler (.csv) dosyaları olarak dışarı aktarabilirsiniz. Dışa aktarılabilir alanlar şunlardır:<br><br><ul><li><strong>Oluşturan</strong>: Referans dosyayı telif hakkı tespiti amacıyla işaretleyen kişinin adı. </li><li><strong>Eklenme tarihi</strong>: Referans dosyanın Rights Manager panosuna eklendiği gün.</li><li><strong>Eşleşme kuralı</strong>: Referans dosyanın eşleşmelerini tespit etmek amacıyla kullanılan eşleşme kuralının adı. </li><li><strong>Yeni eşleşmeler</strong>: Referans dosyanın yüklendiğinden bu yana eşleşme sayısı.</li><li><strong>Gömme yasağı</strong>: “Evet” değeri videonun Facebook’tan dışarı paylaşılamayacağı anlamına gelir. “Hayır” ise videonun harici internet sitelerine gömülmesine izin verildiği anlamını taşır. </li><li><strong>Referans dosya açıklaması</strong>: Referans dosya yüklenirken girilmişse, bu dosyaya ait açıklama.</li><li><strong>Referans dosya başlığı</strong>: Referans dosya yüklenirken girilmişse, bu dosyaya verilen ad.</li><li><strong>Referans video kodu</strong>: Bu benzersiz tanımlayıcı, gerek Yayınlama Aracı gerekse API aracılığıyla yüklenen her referans dosya için Facebook tarafından üretilir.</li><li><strong>Video/Ses</strong>: Referans dosyanın video eşleşmeleri, ses eşleşmeleri veya her iki tür eşleşme açısından izlenip izlenmediği.</li></ul>",
		"instruction":"",
		"_isComplete": false,
		"_pageLevelProgress": {
			"_isEnabled": true
		}
	},
	{
		"_id":"c-499",
		"_parentId":"b-499",
		"_type":"component",
		"_component":"co-jump",
		"_classes":"color-test",
		"_preLinkBody":"Hakları size ait olan içerikleri Sayfanızdaki herhangi bir yönetici Sayfalar arayüzü aracılığıyla yönetebilir. Şimdi geliştiricilerin bir uygulama programı arayüzü (API) kullanarak ",
		"_linkBody":"içerikleri geniş ölçekte yönetme",
		"_postLinkBody":" konusunda size nasıl yardımcı olabileceğini öğrenelim.",
		"_link":"#/id/co-500",
		"_graphic":"adapt/css/assets/icon_nextPage.png",
		"_pageLevelProgress": {
			"_isEnabled": false
		}
	},
	
	
	
	
	
	{
		"_id":"c-500",
		"_parentId":"b-500",
		"_type":"component",
		"_component":"text",
		"_classes":"",
		"_layout":"full",
		"title":"",
		"displayTitle":"",
		"body":"Yayıncılar, bir geliştiriciden yardım alarak Rights Manager API’yi kullanmaya başlayabilir. Rights Manager API, Sayfaların Rights Manager’ın normal özelliklerine ek olarak toplu işlemler ve gelişmiş işlevler gibi ileri özelliklerini kullanmasına olanak tanıyan bir veri besleme mekanizmasıdır. ",
		"instruction":"",
		"_isComplete": true,
		"_pageLevelProgress": {
			"_isEnabled": false
		}
	},
	{
		"_id":"c-510",
		"_parentId":"b-510",
		"_type":"component",
		"_component":"text",
		"_classes":"",
		"_layout":"full",
		"title":"Rights Manager API ile neler yapabilirsiniz?",
		"displayTitle":"Rights Manager API ile neler yapabilirsiniz?",
		"body":"",
		"instruction":"",
		"_isComplete": false,
		"_pageLevelProgress": {
			"_isEnabled": true
		}
	},
	{
		"_id":"c-520",
		"_parentId":"b-520",
		"_type":"component",
		"_component":"text",
		"_classes":"",
		"_layout":"left",
		"title":"API işlevleri",
		"displayTitle":"",
		"body":"<ul><li>Bir defada çok sayıda video için sahiplik belirtme</li><li>Referans dosyaların size ait olmayan kısımlarını dışarıda tutma</li><li>Bir defada çok sayıda video için eşleşme kuralları oluşturma ve bu kuralları yönetme (bu videoların münhasır hak sahibi iseniz; sadece bazı kısımlarının kontrolü size ait olan videolar için toplu eşleşme kuralları oluşturamaz veya uygulayamazsınız)</li></ul>",
		"instruction":"",
		"_isComplete": false,
		"_pageLevelProgress": {
			"_isEnabled": false
		}
	},
	{
		"_id":"c-525",
		"_parentId":"b-520",
		"_type":"component",
		"_component":"graphic",
		"_classes":"",
		"_layout":"right",
		"title":"Eşleşme panosu",
		"displayTitle":"",
		"body":"",
		"instruction":"",
			"_graphic": {
			"src": "course/en/images/icon-scale.png",
			"alt": "eşleşme panosunun ekran görüntüsü"
		},
		"_isComplete": true,
		"_pageLevelProgress": {
			"_isEnabled": false
		}
	},
	{
		"_id":"c-530",
		"_parentId":"b-530",
		"_type":"component",
		"_component":"text",
		"_classes":"",
		"_layout":"full",
		"title":"Geliştiricilere yönelik kaynaklar",
		"displayTitle":"",
		"body":"İşletmeniz bünyesindeki geliştiriciniz API’lerimize aşina değilse, kendisini Facebook’un <a href='https://developers.facebook.com/docs/graph-api/rights-manager-api' target='_new'>Rights Manager API için geliştirici belgelerine</a> yönlendirebilirsiniz. <br><br>API’den faydalanmanıza yardımcı olacak <a href='https://developers.facebook.com/docs/mediasolutions' target='_new'>bir geliştirici bulmak</a> isterseniz, Facebook’un onaylı üçüncü taraf ortaklarının listesine göz atabilirsiniz.",
		"instruction":"",
		"_isComplete": true,
		"_pageLevelProgress": {
			"_isEnabled": true
		}
	},
		{
		"_id":"c-599",
		"_parentId":"b-599",
		"_type":"component",
		"_component":"co-jump",
		"_classes":"color-test",
		"_preLinkBody":"Şimdi ",
		"_linkBody":"Özet ve En İyi Uygulamalar",
		"_postLinkBody":" kısmında bu kursu gözden geçirelim.",
		"_link":"#/id/co-600",
		"_graphic":"adapt/css/assets/icon_nextPage.png",
		"_pageLevelProgress": {
			"_isEnabled": false
		}
	},
	
	
	
	{
		"_id":"c-600",
		"_parentId":"b-600",
		"_type":"component",
		"_component":"text",
		"_classes":"",
		"_layout":"full",
		"title":"",
		"displayTitle":"",
		"body":"Rights Manager, hak sahiplerinin Facebook’ta fikri mülkiyetlerini geniş ölçekte yönetmesine yardımcı olan esnek araçlar sunar.",
		"instruction":"",
		"_isComplete": false,
		"_pageLevelProgress": {
			"_isEnabled": false
		}
	},
	{
		"_id":"c-610",
		"_parentId":"b-610",
		"_type":"component",
		"_component":"graphic",
		"_classes":"",
		"_layout":"full",
		"title":"",
		"displayTitle":"",
		"body":"",
		"instruction":"",
			"_graphic": {
			"src": "course/en/images/RM_selfie.png",
			"alt": "elinde akıllı telefon tutan bir kadının fotoğrafı"
		},
		"_isComplete": false,
		"_pageLevelProgress": {
			"_isEnabled": false
		}
	},
	{
		"_id":"c-620",
		"_parentId":"b-620",
		"_type":"component",
		"_component":"text",
		"_classes":"",
		"_layout":"full",
		"title":"Özet",
		"displayTitle":"",
		"body":"Sayfalar Rights Manager ve ilgili API’yi kullanarak şunları yapabilir:<br><br><ol><li><strong>İçerik sahipliğini belirtme</strong>: Referans ses ve video dosyaları yükleyin (Sayfa arayüzü üzerinden video bazında veya API üzerinden toplu olarak).</li><br><li><strong>Eşleşme kuralları belirleme</strong>: İnsanlar bu içeriği Facebook’a yüklediğinde içerikle ilgili ne yapılacağını Facebook’a söyleyin (Sayfa arayüzü üzerinden video bazında veya API üzerinden toplu olarak).</li><br><li><strong>İzinler verme</strong>: Belirli kişi ve Sayfaların, size ait belirli video ve/veya ses içeriklerini Facebook’a yüklemesine izin verin. (Sayfa arayüzü üzerinden video bazında veya API üzerinden toplu olarak)</li><br><li><strong>Eşleşen videoları inceleme</strong>: Rights Manager’ı kullanarak içeriklerinizi kullanıyor olabilecek videoları inceleyin (sadece Sayfa Yayınlama Araçları).</ol><br>Aklınızda bulundurmanız gereken önemli noktalar:<br><br><ol><li><strong>Rights Manager Facebook’ta içerikleri izlemenin veya potansiyel kötüye kullanımdan korumanın tek yolu değildir</strong>, fakat hak sahiplerinin Facebook’taki içeriklerinin yönetimini tek bir noktadan merkezi olarak gerçekleştirmelerine olanak tanıyan tek araçtır.</li><br><li><strong>Aracı sadece Sayfalar kullanabilir</strong>. Münhasır haklarına sahip oldukları orijinal sanatsal içerikleri düzenli olarak Facebook profillerinde paylaşan kişilerin bir Sayfa oluşturarak Rights Manager’a erişim hakkı başvurusunda bulunmalarını tavsiye ederiz.</li><br><li><strong>Rights Manager içerikleri potansiyel kötüye kullanımdan, bu içerikler Facebook’ta yayınlanmamış olsa dahi koruyabilir</strong>. İçeriği Rights Manager’daki Referans Dosyalar kütüphanesinden yüklemeniz veya Rights Manager API üzerinden aktarmanız yeterlidir.</li><br><li><strong>Rights Manager geriye dönük çalışmaz</strong>. Eşleşen referans dosyalar yüklenmeden önce paylaşılan videolar eşleştirilmeyebilir. Yeni içerikler üretip dağıttıkça referans dosyaları düzenli olarak güncelleyin.</li><br><li><strong>Sadece münhasır haklarına sahip olduğunuz içerikler için referans dosyalar ekleyin</strong>. Münhasır olarak size ait olmayan içerikler üzerinde hak iddiasına bulunmayın (örneğin referans dosyaların, başka birine ait lisanslı veya gömülü içerik bulunduran kısımları).</li></ol>",
		"instruction":"",
		"_isComplete": true,
		"_pageLevelProgress": {
			"_isEnabled": true
		}
	}, 
	{
		"_id":"c-630",
		"_parentId":"b-630",
		"_type":"component",
		"_component":"graphic",
		"_classes":"",
		"_layout":"full",
		"title":"Rights Manager desteği alma",
		"displayTitle":"Rights Manager desteği alma",
		"body":"Rights Manager’ı kullanırken sorun yaşarsanız, Rights Manager’daki <span style='padding:.2em .4em;color:#fff;background-color:#3b5998;'><strong>Destek Al</strong></span> düğmesi aracılığıyla bir Rights Manager destek uzmanıyla bağlantı kurabilirsiniz. Bu bağlantı sizi soru sorabileceğiniz, bir sorunu bildirebileceğiniz veya deneyimleriniz hakkında görüşlerinizi aktarabileceğiniz bir forma yönlendirecektir.",
		"instruction":"",
		"_graphic": {
			"src": "course/en/images/support.png",
			"alt": "Destek Alma"
		},
		"_isComplete": true,
		"_pageLevelProgress": {
			"_isEnabled": true
		}
	}, 
	{
		"_id":"c-699",
		"_parentId":"b-699",
		"_type":"component",
		"_component":"co-jump",
		"_classes":"color-test",
		"_preLinkBody":"Neler öğrendiğinizi göstermeye hazır mısınız? ",
		"_linkBody":"Bilgi Kontrolü",
		"_postLinkBody":" kısmıyla devam edelim. Sadece eğlence amaçlı; sonucu sizden başka kimse bilmeyecek. ",
		"_link":"#/id/co-700",
		"_graphic":"adapt/css/assets/icon_nextPage.png",
		"_pageLevelProgress": {
			"_isEnabled": false
		}
	},
	{
		"_id":"c-700",
		"_parentId":"b-700",
		"_type":"component",
		"_component":"mcq",
		"_classes":"",
		"_layout":"full",
		"_attempts":1,
		"_setCompletionOn":"inview",
		"_shouldDisplayAttempts": false,
		"_questionWeight":1,
		"_isRandom":false,
		"_selectable":1,
		"title": "Soru 1/3",
		"displayTitle": "Soru 1/3",
		"body": "Sayfa yöneticileri Rights Manager olmadan Facebook’taki fikri mülkiyetlerini yönetebilir, potansiyel kötüye kullanıma karşı koruyabilir veya bunlardan reklam geliri elde edebilir mi?",
		"instruction": "",
		"_items": [
			{
				"text": "Hayır. Facebook’ta herhangi bir medya içeriğini yönetmek için Rights Manager gereklidir.",
				"_shouldBeSelected":false
			},
			{
				"text": "Evet, fakat sadece yasal bildirim ve kaldırma yöntemlerini kullanarak.",
				"_shouldBeSelected":false,
				"feedback":""
			},
			{
				"text": "Evet, ihlali manuel bir form ile doğrudan Facebook’a bildirerek.",
				"_shouldBeSelected":false
			},
			{
				"text": "Evet, manuel şikayet ve yasal işlemleri birlikte kullanarak.",
				"_shouldBeSelected":true,
				"feedback":""
			}
		],
		"_feedback":{
			"correct":"Doğru! Ses ve video içeriklerinizi yönetmek için Rights Manager’a yönetici erişimi şart değildir, ancak işinizi oldukça kolaylaştırır.",
			"_incorrect": {
				"notFinal": "",
				"final": "Üzgünüz, yanlış cevap. Hak sahipleri, ihlalleri Rights Manager olmadan da Facebook’a ve yasal yetkili makamlara bildirebilir."
			},
			"_buttons": {
				"_submit": {
					"buttonText": "Gönder",
					"ariaLabel": "Cevabınızı göndermek için burayı seçin."
				},
				"_reset": {
					"buttonText": "Sıfırla",
					"ariaLabel": ""
				},
				"_showCorrectAnswer": {
					"buttonText": "Doğru Cevap",
					"ariaLabel": ""
				},
				"_hideCorrectAnswer": {
					"buttonText": "Benim Cevabım",
					"ariaLabel": ""
				},
				"_showFeedback": {
					"buttonText": "Geribildirimi göster",
					"ariaLabel": ""
				},
				"remainingAttemptsText": "deneme kaldı",
				"remainingAttemptText": "son deneme"
			},
			"_pageLevelProgress": {
				"_isEnabled": true
			}
		}
	},
	{
		"_id":"c-720",
		"_parentId":"b-720",
		"_type":"component",
		"_component":"mcq",
		"_classes":"",
		"_layout":"full",
		"_attempts":1,
		"_setCompletionOn":"inview",
		"_shouldDisplayAttempts": false,
		"_questionWeight":1,
		"_isRandom":false,
		"_selectable":1,
		"title": "Soru 3/3",
		"displayTitle": "Soru 3/3",
		"body": "Hangi işlem bir geliştiricinin bir API kullanmasını gerektirir?",
		"instruction": "",
		"_items": [
			{
				"text": "Bir videonun ses içeriği üzerinde hak iddia etme.",
				"_shouldBeSelected":false
			},
			{
				"text": "Bir videonun görsel içeriği üzerinde hak iddia etme.",
				"_shouldBeSelected":false,
				"feedback":""
			},
			{
				"text": "Bir videonun ses ve video içeriği üzerinde hak iddia etme.",
				"_shouldBeSelected":false
			},
			{
				"text": "Bir videonun ses veya video içeriği üzerinde kısmi hak iddia etme.",
				"_shouldBeSelected":true,
				"feedback":""
			}
		],
		"_feedback":{
			"correct":"Mükemmel! Sadece API kullanarak, bir ses veya video referansının bir kısmı üzerinde hak iddiasında bulunabilirsiniz.",
			"_incorrect": {
				"notFinal": "",
				"final": "Pek sayılmaz. Sayfa yöneticileri ses veya video içerikleri üzerinde %100 oranında hak iddia edebilir, fakat sadece API üzerinden kısmi hak talebinde bulunulabilir."
			},
			"_buttons": {
				"_submit": {
					"buttonText": "Gönder",
					"ariaLabel": "Cevabınızı göndermek için burayı seçin."
				},
				"_reset": {
					"buttonText": "Sıfırla",
					"ariaLabel": ""
				},
				"_showCorrectAnswer": {
					"buttonText": "Doğru Cevap",
					"ariaLabel": ""
				},
				"_hideCorrectAnswer": {
					"buttonText": "Benim Cevabım",
					"ariaLabel": ""
				},
				"_showFeedback": {
					"buttonText": "Geribildirimi göster",
					"ariaLabel": ""
				},
				"remainingAttemptsText": "deneme kaldı",
				"remainingAttemptText": "son deneme"
			},
			"_pageLevelProgress": {
				"_isEnabled": true
			}
		}
	},
	{
		"_id":"c-710",
		"_parentId":"b-710",
		"_type":"component",
		"_component":"mcq",
		"_classes":"",
		"_layout":"full",
		"_attempts":1,
		"_setCompletionOn":"inview",
		"_shouldDisplayAttempts": false,
		"_questionWeight":1,
		"_isRandom":false,
		"_selectable":1,
		"title": "Soru 2/3",
		"displayTitle": "Soru 2/3",
		"body": "Eşleşme kuralları ile koşulları arasındaki en önemli fark nedir? ",
		"instruction": "",
		"_items": [
			{
				"text": "Eşleşme kuralları Facebook’a üzerinde hak iddiasında bulunulan bir içerik tespit ettiğinde ne yapması gerektiğini söyler; koşullar ise eşleşme kurallarında değişiklik yapar.",
				"_shouldBeSelected":true
			},
			{
				"text": "Eşleşme kuralları koşullarda değişiklik yapar; koşullar ise Facebook’a üzerinde hak iddiasında bulunulan içerik tespit ettiğinde ne yapması gerektiğini söyler.",
				"_shouldBeSelected":false,
				"feedback":""
			},
			{
				"text": "Eşleşme kuralları kişi ve Sayfalara içeriği kullanma yetkisi verir; koşullar ise eşleşmelerin süresini izler.",
				"_shouldBeSelected":false
			},
			{
				"text": "Eşleşme kuralları Facebook’a üzerinde hak iddiasında bulunulan içerikleri nasıl bulacağını söyler; koşullar ise eşleşmeleri engellemenize veya eşleşmelere izin vermenize olanak tanır.",
				"_shouldBeSelected":false,
				"feedback":""
			}
		],
		"_feedback":{
			"correct":"Bildiniz! Koşullar, eşleşme kurallarında değişiklik yapar.",
			"_incorrect": {
				"notFinal": "",
				"final": "Az kalsın oluyordu! Eşleşme kuralları Facebook’a üzerinde hak iddiasında bulunulan içeriklerle ilgili ne yapması gerektiğini söylerken, koşullar bu kurallarda değişiklik yapabilir."
			},
			"_buttons": {
				"_submit": {
					"buttonText": "Gönder",
					"ariaLabel": "Cevabınızı göndermek için burayı seçin."
				},
				"_reset": {
					"buttonText": "Sıfırla",
					"ariaLabel": ""
				},
				"_showCorrectAnswer": {
					"buttonText": "Doğru Cevap",
					"ariaLabel": ""
				},
				"_hideCorrectAnswer": {
					"buttonText": "Benim Cevabım",
					"ariaLabel": ""
				},
				"_showFeedback": {
					"buttonText": "Geribildirimi göster",
					"ariaLabel": ""
				},
				"remainingAttemptsText": "deneme kaldı",
				"remainingAttemptText": "son deneme"
			},
			"_pageLevelProgress": {
				"_isEnabled": true
			}
		}
	},
	{
		"_id":"c-799",
		"_parentId":"b-799",
		"_type":"component",
		"_component":"co-jump",
		"_classes":"color-test",
		"_autoComplete":true,
		"_preLinkBody":"Bu kursu bitirmek için aşağıdaki düğmeye tıklayın. Not: Tüm modüller için durum çubuklarının tamamlandığından emin olmak için <a href='#'>buraya tıklayın</a>.<br>",
		"_linkBody":"<div style = 'text-align:center;padding:8px;'><button class='buttons-action'><b>BU KURSU BİTİRDİM</b></button></div><br> ",
		"_postLinkBody":"",
		"_link":"",
		"_pageLevelProgress": {
				"_isEnabled": false
		}
	}
]
